…
\[\sigma = \sqrt{\sum_{i}^{n} \frac{(x_i - \mu)^2}{n}}\]

\[z = \frac{x-\mu}{\sigma}\]

where \(x\) is the data, \(\mu\) is the mean, \(\sigma\) is the standard
deviation, and \(z\) is the standard score of \(x\)

``` r
df_stdavglap <- 
  df_avglaptime %>%
  mutate(std_avg_lap = (avg_lap-circuit_avg_lap)/circuit_lap_sd)
df_stdavglap
```

    ## # A tibble: 9,233 x 29
    ##    resultId raceId driverId constructorId positionOrder  laps milliseconds
    ##       <dbl>  <dbl>    <dbl>         <dbl>         <dbl> <dbl>        <dbl>
    ##  1        1     18        1             1             1    58      5690616
    ##  2        2     18        2             2             2    58      5696094
    ##  3        3     18        3             3             3    58      5698779
    ##  4        4     18        4             4             4    58      5707797
    ##  5        5     18        5             1             5    58      5708630
    ##  6        6     18        6             3             6    57           NA
    ##  7        7     18        7             5             7    55           NA
    ##  8        8     18        8             6             8    53           NA
    ##  9        9     18        9             2             9    47           NA
    ## 10       10     18       10             7            10    43           NA
    ## # ... with 9,223 more rows, and 22 more variables: fastestLap <dbl>,
    ## #   rank <dbl>, fastestLapTime <time>, fastestLapSpeed <dbl>, statusId <dbl>,
    ## #   driver_name <chr>, driver_nationality <chr>, constructor_name <chr>,
    ## #   constructor_nationality <chr>, year <dbl>, round <dbl>, circuitId <dbl>,
    ## #   race_name <chr>, status <chr>, circuit_name <chr>, circuitRef <chr>,
    ## #   circuit_country <chr>, total_time <dbl>, avg_lap <dbl>,
    ## #   circuit_avg_lap <dbl>, circuit_lap_sd <dbl>, std_avg_lap <dbl>

``` r
df_stdavglap %>%
  select(raceId, driverId, positionOrder, laps, status, avg_lap, std_avg_lap)
```

    ## # A tibble: 9,233 x 7
    ##    raceId driverId positionOrder  laps status    avg_lap std_avg_lap
    ##     <dbl>    <dbl>         <dbl> <dbl> <chr>       <dbl>       <dbl>
    ##  1     18        1             1    58 Finished   98114.     -0.110 
    ##  2     18        2             2    58 Finished   98209.     -0.0997
    ##  3     18        3             3    58 Finished   98255.     -0.0948
    ##  4     18        4             4    58 Finished   98410.     -0.0783
    ##  5     18        5             5    58 Finished   98425.     -0.0768
    ##  6     18        6             6    57 +1 Lap    100082.      0.0985
    ##  7     18        7             7    55 Engine     98864.     -0.0303
    ##  8     18        8             8    53 Engine     99535.      0.0406
    ##  9     18        9             9    47 Collision  99291.      0.0148
    ## 10     18       10            10    43 Accident   96896.     -0.239 
    ## # ... with 9,223 more rows
…
  # Getting rid of country info
  select(-c(driver_nationality, constructor_nationality, circuit_country)) %>%

  # Getting rid of cols represented two different ways 
  select(-c(race_name, driverId, constructorId, circuit_name, statusId)) %>%
  
  # Getting rid of less useful metrics
  select(-c(laps, total_time, avg_lap))

df_final
```

    ## # A tibble: 9,233 x 10
    ##    raceId positionOrder driver_name constructor_name  year round circuitId
    ##     <dbl>         <dbl> <chr>       <chr>            <dbl> <dbl>     <dbl>
    ##  1     18             1 "Lewis Ham~ McLaren           2008     1         1
    ##  2     18             2 "Nick Heid~ BMW Sauber        2008     1         1
    ##  3     18             3 "Nico Rosb~ Williams          2008     1         1
    ##  4     18             4 "Fernando ~ Renault           2008     1         1
    ##  5     18             5 "Heikki Ko~ McLaren           2008     1         1
    ##  6     18             6 "Kazuki Na~ Williams          2008     1         1
    ##  7     18             7 "S\xe9bast~ Toro Rosso        2008     1         1
    ##  8     18             8 "Kimi R\xe~ Ferrari           2008     1         1
    ##  9     18             9 "Robert Ku~ BMW Sauber        2008     1         1
    ## 10     18            10 "Timo Gloc~ Toyota            2008     1         1
    ## # ... with 9,223 more rows, and 3 more variables: status <chr>,
    ## #   circuitRef <chr>, std_avg_lap <dbl>
