…
# select which attributes to keep about each circuit
df_circuits_trim <-
  df_circuits %>% 
  select(circuitId, circuit_name=name, circuitRef, circuit_country=country) 
df_results_pluscircuits <- left_join(df_results_plusstatus, df_circuits_trim, by = c("circuitId"))

# turn all \\N into NAs
df_clean <-
  df_results_pluscircuits %>%
  mutate_all(na_if, "\\N")
df_clean
```

    ## # A tibble: 24,900 x 24
    ##    resultId raceId driverId constructorId positionOrder  laps milliseconds
    ##       <dbl>  <dbl>    <dbl>         <dbl>         <dbl> <dbl> <chr>       
    ##  1        1     18        1             1             1    58 5690616     
    ##  2        2     18        2             2             2    58 5696094     
    ##  3        3     18        3             3             3    58 5698779     
    ##  4        4     18        4             4             4    58 5707797     
    ##  5        5     18        5             1             5    58 5708630     
    ##  6        6     18        6             3             6    57 <NA>        
    ##  7        7     18        7             5             7    55 <NA>        
    ##  8        8     18        8             6             8    53 <NA>        
    ##  9        9     18        9             2             9    47 <NA>        
    ## 10       10     18       10             7            10    43 <NA>        
    ## # ... with 24,890 more rows, and 17 more variables: fastestLap <chr>,
    ## #   rank <chr>, fastestLapTime <chr>, fastestLapSpeed <chr>, statusId <dbl>,
    ## #   driver_name <chr>, driver_nationality <chr>, constructor_name <chr>,
    ## #   constructor_nationality <chr>, year <dbl>, round <dbl>, circuitId <dbl>,
    ## #   race_name <chr>, status <chr>, circuit_name <chr>, circuitRef <chr>,
    ## #   circuit_country <chr>
…
  # get how many constructors that each driver has driven for
  group_by(driver_name) %>%
  mutate(driver_numconstr = n()) %>%
  
  # keep drivers that drove for more than one constructor
  filter(driver_numconstr > 1, row_number() == 1) %>%
  select(driver_name) %>% 
  arrange(driver_name)
df_multi_drivers
```

    ## # A tibble: 499 x 1
    ## # Groups:   driver_name [499]
    ##    driver_name         
    ##    <chr>               
    ##  1 Adrian Sutil        
    ##  2 Aguri Suzuki        
    ##  3 Al Herman           
    ##  4 Al Keller           
    ##  5 Alain Prost         
    ##  6 Alan Jones          
    ##  7 Alan Rees           
    ##  8 Alberto Ascari      
    ##  9 Alberto Colombo     
    ## 10 Alessandro de Tomaso
    ## # ... with 489 more rows

``` r
# get all of the races "multi drivers" drove
df_results_multi_drivers <- inner_join(df_clean, df_multi_drivers, by = "driver_name")
df_results_multi_drivers %>% 
  arrange(driver_name)
```

    ## # A tibble: 23,059 x 24
    ##    resultId raceId driverId constructorId positionOrder  laps milliseconds
    ##       <dbl>  <dbl>    <dbl>         <dbl>         <dbl> <dbl> <chr>       
    ##  1       16     18       16            10            16     8 <NA>        
    ##  2       42     19       16            10            20     5 <NA>        
    ##  3       63     20       16            10            19    56 <NA>        
    ##  4       87     21       16            10            21     0 <NA>        
    ##  5      104     22       16            10            16    57 <NA>        
    ##  6      123     23       16            10            15    67 <NA>        
    ##  7      148     24       16            10            20    13 <NA>        
    ##  8      167     25       16            10            19    69 <NA>        
    ##  9      186     26       16            10            18    10 <NA>        
    ## 10      203     27       16            10            15    67 5550362     
    ## # ... with 23,049 more rows, and 17 more variables: fastestLap <chr>,
    ## #   rank <chr>, fastestLapTime <chr>, fastestLapSpeed <chr>, statusId <dbl>,
    ## #   driver_name <chr>, driver_nationality <chr>, constructor_name <chr>,
    ## #   constructor_nationality <chr>, year <dbl>, round <dbl>, circuitId <dbl>,
    ## #   race_name <chr>, status <chr>, circuit_name <chr>, circuitRef <chr>,
    ## #   circuit_country <chr>
…
``` r
df_avglaptime <-
  df_laptimes %>% 
  group_by(driverId, raceId) %>%
  summarize(total_time = sum(milliseconds), avg_lap = total_time / n())
```

    ## `summarise()` regrouping output by 'driverId' (override with `.groups` argument)

``` r
df_avglaptime
```

    ## # A tibble: 9,233 x 4
    ## # Groups:   driverId [130]
    ##    driverId raceId total_time avg_lap
    ##       <dbl>  <dbl>      <dbl>   <dbl>
    ##  1        1      1    5658698  97564.
    ##  2        1      2    3391355 109399.
    ##  3        1      3    7135351 127417.
    ##  4        1      4    5530278  97022.
    ##  5        1      5    5840216  89849.
    ##  6        1      6    6086882  79050.
    ##  7        1      7    5265302  90781.
    ##  8        1      8    5032322  85294.
    ##  9        1      9    5887232  99784.
    ## 10        1     10    5903876  84341.
    ## # ... with 9,223 more rows

``` r
df_with_avglaptime <- left_join(df_clean, df_avglaptime, by = c("driverId", "raceId"))
df_with_avglaptime <-
  df_with_avglaptime %>% 
  filter(!is.na(avg_lap))

df_with_avglaptime <-
  df_with_avglaptime %>% 
  group_by(circuitId) %>%
  mutate(circuit_avg_lap = mean(avg_lap), circuit_lap_sd = sd(avg_lap))
df_with_avglaptime
```

    ## # A tibble: 9,233 x 28
    ## # Groups:   circuitId [37]
    ##    resultId raceId driverId constructorId positionOrder  laps milliseconds
    ##       <dbl>  <dbl>    <dbl>         <dbl>         <dbl> <dbl> <chr>       
    ##  1        1     18        1             1             1    58 5690616     
    ##  2        2     18        2             2             2    58 5696094     
    ##  3        3     18        3             3             3    58 5698779     
    ##  4        4     18        4             4             4    58 5707797     
    ##  5        5     18        5             1             5    58 5708630     
    ##  6        6     18        6             3             6    57 <NA>        
    ##  7        7     18        7             5             7    55 <NA>        
    ##  8        8     18        8             6             8    53 <NA>        
    ##  9        9     18        9             2             9    47 <NA>        
    ## 10       10     18       10             7            10    43 <NA>        
    ## # ... with 9,223 more rows, and 21 more variables: fastestLap <chr>,
    ## #   rank <chr>, fastestLapTime <chr>, fastestLapSpeed <chr>, statusId <dbl>,
    ## #   driver_name <chr>, driver_nationality <chr>, constructor_name <chr>,
    ## #   constructor_nationality <chr>, year <dbl>, round <dbl>, circuitId <dbl>,
    ## #   race_name <chr>, status <chr>, circuit_name <chr>, circuitRef <chr>,
    ## #   circuit_country <chr>, total_time <dbl>, avg_lap <dbl>,
    ## #   circuit_avg_lap <dbl>, circuit_lap_sd <dbl>
…
