…
df_train_pos <-
  anti_join(
    df_data_with_rows,
    df_validate_pos,
    by = "ID"
  )

df_train_pos
```

    ## # A tibble: 1,405 x 17
    ##       ID resultId raceId driverId constructorId positionOrder  laps
    ##    <int>    <dbl>  <dbl>    <dbl>         <dbl>         <dbl> <dbl>
    ##  1     2    22131    900      825             1             2    57
    ##  2     3    22132    900       18             1             3    57
    ##  3     5    22134    900      822             3             5    57
    ##  4     6    22135    900      807            10             6    57
    ##  5     7    22136    900        8             6             7    57
    ##  6     8    22137    900      818             5             8    57
    ##  7     9    22138    900      826             5             9    57
    ##  8    10    22139    900      815            10            10    57
    ##  9    11    22140    900       16            15            11    56
    ## 10    13    22142    900      820           206            13    55
    ## # … with 1,395 more rows, and 10 more variables: fastestLapSpeed <dbl>,
    ## #   statusId <dbl>, driver_name <chr>, constructor_name <chr>, year <dbl>,
    ## #   round <dbl>, circuitId <dbl>, race_name <chr>, status <chr>,
    ## #   circuit_name <chr>

``` r
df_validate_pos
```

    ## # A tibble: 1,362 x 17
    ##       ID resultId raceId driverId constructorId positionOrder  laps
    ##    <int>    <dbl>  <dbl>    <dbl>         <dbl>         <dbl> <dbl>
    ##  1   727    22858    943        1           131             2    71
    ##  2  1848    23983    999        1           131             1    67
    ##  3  1596    23730    986        1           131             9    70
    ##  4  1289    23420    971        1           131             2    57
    ##  5  2528    24666   1033        1           131             1    70
    ##  6   962    23093    956        1           131             1    71
    ##  7   526    22656    932        1           131             1    70
    ##  8    23    22152    901        1           131             1    56
    ##  9  2469    24606   1030        1           131             1    55
    ## 10  1140    23271    964        1           131             3    53
    ## # … with 1,352 more rows, and 10 more variables: fastestLapSpeed <dbl>,
    ## #   statusId <dbl>, driver_name <chr>, constructor_name <chr>, year <dbl>,
    ## #   round <dbl>, circuitId <dbl>, race_name <chr>, status <chr>,
    ## #   circuit_name <chr>
…
    ##   MSE 20.9296

    ## Train Fit - Driver and Constructor

    ##   Rsquare 0.4102879

    ##   MSE 20.22789

#### Prediction Interval

    ## Warning in predict.lm(model, data): prediction from a rank-deficient fit may be
    ## misleading

    ## # A tibble: 1,362 x 21
    ##       ID resultId raceId driverId constructorId positionOrder  laps
    ##    <int>    <dbl>  <dbl>    <dbl>         <dbl>         <dbl> <dbl>
    ##  1   727    22858    943        1           131             2    71
    ##  2  1848    23983    999        1           131             1    67
    ##  3  1596    23730    986        1           131             9    70
    ##  4  1289    23420    971        1           131             2    57
    ##  5  2528    24666   1033        1           131             1    70
    ##  6   962    23093    956        1           131             1    71
    ##  7   526    22656    932        1           131             1    70
    ##  8    23    22152    901        1           131             1    56
    ##  9  2469    24606   1030        1           131             1    55
    ## 10  1140    23271    964        1           131             3    53
    ## # … with 1,352 more rows, and 14 more variables: fastestLapSpeed <dbl>,
    ## #   statusId <dbl>, driver_name <chr>, constructor_name <chr>, year <dbl>,
    ## #   round <dbl>, circuitId <dbl>, race_name <chr>, status <chr>,
    ## #   circuit_name <chr>, pred <dbl>, pred_driv <dbl>, pred_cons <dbl>,
    ## #   pred_drivcons <dbl>
…
    ## # A tibble: 1,405 x 20
    ##       ID resultId raceId driverId constructorId positionOrder  laps
    ##    <int>    <dbl>  <dbl>    <dbl>         <dbl>         <dbl> <dbl>
    ##  1     2    22131    900      825             1             2    57
    ##  2     3    22132    900       18             1             3    57
    ##  3     5    22134    900      822             3             5    57
    ##  4     6    22135    900      807            10             6    57
    ##  5     7    22136    900        8             6             7    57
    ##  6     8    22137    900      818             5             8    57
    ##  7     9    22138    900      826             5             9    57
    ##  8    10    22139    900      815            10            10    57
    ##  9    11    22140    900       16            15            11    56
    ## 10    13    22142    900      820           206            13    55
    ## # … with 1,395 more rows, and 13 more variables: fastestLapSpeed <dbl>,
    ## #   statusId <dbl>, driver_name <chr>, constructor_name <chr>, year <dbl>,
    ## #   round <dbl>, circuitId <dbl>, race_name <chr>, status <chr>,
    ## #   circuit_name <chr>, pi_fit <dbl>, pi_lwr <dbl>, pi_upr <dbl>
…
