Final_Report.utf8
…
df_train_pos <-
  anti_join(
    df_data_with_rows,
    df_validate_pos,
    by = "ID"
  )

df_train_pos

## # A tibble: 1,405 x 17
##       ID resultId raceId driverId constructorId positionOrder  laps
##    <int>    <dbl>  <dbl>    <dbl>         <dbl>         <dbl> <dbl>
##  1     1    22130    900        3           131             1    57
##  2     2    22131    900      825             1             2    57
##  3     4    22133    900        4             6             4    57
##  4     5    22134    900      822             3             5    57
##  5     6    22135    900      807            10             6    57
##  6     8    22137    900      818             5             8    57
##  7     9    22138    900      826             5             9    57
##  8    10    22139    900      815            10            10    57
##  9    11    22140    900       16            15            11    56
## 10    12    22141    900      821            15            12    56
## # ... with 1,395 more rows, and 10 more variables: fastestLapSpeed <dbl>,
## #   statusId <dbl>, driver_name <chr>, constructor_name <chr>, year <dbl>,
## #   round <dbl>, circuitId <dbl>, race_name <chr>, status <chr>,
## #   circuit_name <chr>

df_validate_pos

## # A tibble: 1,362 x 17
##       ID resultId raceId driverId constructorId positionOrder  laps
##    <int>    <dbl>  <dbl>    <dbl>         <dbl>         <dbl> <dbl>
##  1    45    22174    902        1           131             1    57
##  2  1182    23313    966        1           131             1    71
##  3  1823    23957    997        1           131            16    62
##  4   591    22721    936        1           131             6    69
##  5  1968    24103   1005        1           131             1    53
##  6  1028    23159    959        1           131             1    67
##  7  2634    24772   1038        1           131             7    53
##  8  2351    24489   1024        1           131             4    61
##  9  1268    23399    970        1           131             1    56
## 10  1508    23642    982        1           131             1    58
## # ... with 1,352 more rows, and 10 more variables: fastestLapSpeed <dbl>,
## #   statusId <dbl>, driver_name <chr>, constructor_name <chr>, year <dbl>,
## #   round <dbl>, circuitId <dbl>, race_name <chr>, status <chr>,
## #   circuit_name <chr>
…
##   MSE 22.14962

## Train Fit - Driver and Constructor

##   Rsquare 0.3841973

##   MSE 21.47604

Prediction Interval

## Warning in predict.lm(model, data): prediction from a rank-deficient fit may be
## misleading

## # A tibble: 1,362 x 21
##       ID resultId raceId driverId constructorId positionOrder  laps
##    <int>    <dbl>  <dbl>    <dbl>         <dbl>         <dbl> <dbl>
##  1    45    22174    902        1           131             1    57
##  2  1182    23313    966        1           131             1    71
##  3  1823    23957    997        1           131            16    62
##  4   591    22721    936        1           131             6    69
##  5  1968    24103   1005        1           131             1    53
##  6  1028    23159    959        1           131             1    67
##  7  2634    24772   1038        1           131             7    53
##  8  2351    24489   1024        1           131             4    61
##  9  1268    23399    970        1           131             1    56
## 10  1508    23642    982        1           131             1    58
## # ... with 1,352 more rows, and 14 more variables: fastestLapSpeed <dbl>,
## #   statusId <dbl>, driver_name <chr>, constructor_name <chr>, year <dbl>,
## #   round <dbl>, circuitId <dbl>, race_name <chr>, status <chr>,
## #   circuit_name <chr>, pred <dbl>, pred_driv <dbl>, pred_cons <dbl>,
## #   pred_drivcons <dbl>
…
## # A tibble: 1,362 x 20
##       ID resultId raceId driverId constructorId positionOrder  laps
##    <int>    <dbl>  <dbl>    <dbl>         <dbl>         <dbl> <dbl>
##  1    45    22174    902        1           131             1    57
##  2  1182    23313    966        1           131             1    71
##  3  1823    23957    997        1           131            16    62
##  4   591    22721    936        1           131             6    69
##  5  1968    24103   1005        1           131             1    53
##  6  1028    23159    959        1           131             1    67
##  7  2634    24772   1038        1           131             7    53
##  8  2351    24489   1024        1           131             4    61
##  9  1268    23399    970        1           131             1    56
## 10  1508    23642    982        1           131             1    58
## # ... with 1,352 more rows, and 13 more variables: fastestLapSpeed <dbl>,
## #   statusId <dbl>, driver_name <chr>, constructor_name <chr>, year <dbl>,
## #   round <dbl>, circuitId <dbl>, race_name <chr>, status <chr>,
## #   circuit_name <chr>, pi_fit <dbl>, pi_lwr <dbl>, pi_upr <dbl>
…
