…
df_validate <-
  anti_join(
    df_stdavglap,
    df_train,
    by = "ID"
  )

df_train %>% arrange(ID)
```

    ## # A tibble: 4,210 x 22
    ##       ID resultId raceId driverId constructorId positionOrder  laps
    ##    <int>    <dbl>  <dbl>    <dbl>         <dbl>         <dbl> <dbl>
    ##  1     2        2     18        2             2             2    58
    ##  2     6        6     18        6             3             6    57
    ##  3     7        7     18        7             5             7    55
    ##  4     9        9     18        9             2             9    47
    ##  5    10       10     18       10             7            10    43
    ##  6    11       11     18       11             8            11    32
    ##  7    12       12     18       12             4            12    30
    ##  8    14       14     18       14             9            14    25
    ##  9    16       16     18       16            10            16     8
    ## 10    19       24     19        9             2             2    56
    ## # … with 4,200 more rows, and 15 more variables: fastestLapSpeed <dbl>,
    ## #   statusId <dbl>, driver_name <chr>, constructor_name <chr>, year <dbl>,
    ## #   round <dbl>, circuitId <dbl>, race_name <chr>, status <chr>,
    ## #   circuit_name <chr>, total_time <dbl>, avg_lap <dbl>, circuit_avg_lap <dbl>,
    ## #   circuit_lap_sd <dbl>, std_avg_lap <dbl>

``` r
df_validate %>% arrange(ID)
```

    ## # A tibble: 5,023 x 22
    ##       ID resultId raceId driverId constructorId positionOrder  laps
    ##    <int>    <dbl>  <dbl>    <dbl>         <dbl>         <dbl> <dbl>
    ##  1     1        1     18        1             1             1    58
    ##  2     3        3     18        3             3             3    58
    ##  3     4        4     18        4             4             4    58
    ##  4     5        5     18        5             1             5    58
    ##  5     8        8     18        8             6             8    53
    ##  6    13       13     18       13             6            13    29
    ##  7    15       15     18       15             7            15    19
    ##  8    17       22     18       22            11            22    58
    ##  9    18       23     19        8             6             1    56
    ## 10    20       25     19        5             1             3    56
    ## # … with 5,013 more rows, and 15 more variables: fastestLapSpeed <dbl>,
    ## #   statusId <dbl>, driver_name <chr>, constructor_name <chr>, year <dbl>,
    ## #   round <dbl>, circuitId <dbl>, race_name <chr>, status <chr>,
    ## #   circuit_name <chr>, total_time <dbl>, avg_lap <dbl>, circuit_avg_lap <dbl>,
    ## #   circuit_lap_sd <dbl>, std_avg_lap <dbl>
…
``` r
df_stdavglap
```

    ## # A tibble: 9,233 x 22
    ##       ID resultId raceId driverId constructorId positionOrder  laps
    ##    <int>    <dbl>  <dbl>    <dbl>         <dbl>         <dbl> <dbl>
    ##  1     1        1     18        1             1             1    58
    ##  2     2        2     18        2             2             2    58
    ##  3     3        3     18        3             3             3    58
    ##  4     4        4     18        4             4             4    58
    ##  5     5        5     18        5             1             5    58
    ##  6     6        6     18        6             3             6    57
    ##  7     7        7     18        7             5             7    55
    ##  8     8        8     18        8             6             8    53
    ##  9     9        9     18        9             2             9    47
    ## 10    10       10     18       10             7            10    43
    ## # … with 9,223 more rows, and 15 more variables: fastestLapSpeed <dbl>,
    ## #   statusId <dbl>, driver_name <chr>, constructor_name <chr>, year <dbl>,
    ## #   round <dbl>, circuitId <dbl>, race_name <chr>, status <chr>,
    ## #   circuit_name <chr>, total_time <dbl>, avg_lap <dbl>, circuit_avg_lap <dbl>,
    ## #   circuit_lap_sd <dbl>, std_avg_lap <dbl>
…
